{
  "project_info": {
    "project_number": "185401337383",
    "firebase_url": "https://fuel-calculator-7fe50.firebaseio.com",
    "project_id": "fuel-calculator-7fe50",
    "storage_bucket": "fuel-calculator-7fe50.appspot.com"
  },
  "client": [
    {
      "client_info": {
        "mobilesdk_app_id": "1:185401337383:android:82824509607eaaa7",
        "android_client_info": {
          "package_name": "com.trip.ben.calculator"
        }
      },
      "oauth_client": [
        {
          "client_id": "185401337383-85ah91ue9008a0f4hqp0jti8d4m5k9q5.apps.googleusercontent.com",
          "client_type": 1,
          "android_info": {
            "package_name": "com.trip.ben.calculator",
            "certificate_hash": "ab6a7018e4b19b5b6b9e5977e65b2bac104cacef"
          }
        },
        {
          "client_id": "185401337383-v8p054b85159q0jqs713rc0tpv0kt0n9.apps.googleusercontent.com",
          "client_type": 3
        }
      ],
      "api_key": [
        {
          "current_key": "AIzaSyAKOl7UoWn-EYEqye2ocijzTOTMfKM-TKA"
        }
      ],
      "services": {
        "analytics_service": {
          "status": 1
        },
        "appinvite_service": {
          "status": 2,
          "other_platform_oauth_client": [
            {
              "client_id": "185401337383-v8p054b85159q0jqs713rc0tpv0kt0n9.apps.googleusercontent.com",
              "client_type": 3
            }
          ]
        },
        "ads_service": {
          "status": 2
        }
      }
    }
  ],
  "configuration_version": "1"
}